<?xml version="1.0" encoding="UTF-8" standalone="no"?>
<!DOCTYPE svg PUBLIC "-//W3C//DTD SVG 1.1//EN"
 "http://www.w3.org/Graphics/SVG/1.1/DTD/svg11.dtd">
<!-- Generated by graphviz version 2.40.1 (20161225.0304)
 -->
<!-- Title: dependencies Pages: 1 -->
<svg width="504pt" height="284pt"
 viewBox="0.00 0.00 504.00 284.00" xmlns="http://www.w3.org/2000/svg" xmlns:xlink="http://www.w3.org/1999/xlink">
<g id="graph0" class="graph" transform="scale(1 1) rotate(0) translate(4 280)">
<title>dependencies</title>
<polygon fill="#ffffff" stroke="transparent" points="-4,4 -4,-280 500,-280 500,4 -4,4"/>
<text text-anchor="start" x="227.0091" y="-42.4" font-family="sans-serif" font-weight="bold" font-size="14.00" fill="#000000">Legend</text>
<polygon fill="#ffffb3" stroke="transparent" points="14,-10 14,-30 34,-30 34,-10 14,-10"/>
<text text-anchor="start" x="37.629" y="-15.4" font-family="sans-serif" font-size="14.00" fill="#000000"> &#160;Declarations</text>
<polygon fill="#8dd3c7" stroke="transparent" points="127,-10 127,-30 147,-30 147,-10 127,-10"/>
<text text-anchor="start" x="150.7251" y="-15.4" font-family="sans-serif" font-size="14.00" fill="#000000"> &#160;Module</text>
<polygon fill="#80b1d3" stroke="transparent" points="213,-10 213,-30 233,-30 233,-10 213,-10"/>
<text text-anchor="start" x="236.7812" y="-15.4" font-family="sans-serif" font-size="14.00" fill="#000000"> &#160;Bootstrap</text>
<polygon fill="#fdb462" stroke="transparent" points="310,-10 310,-30 330,-30 330,-10 310,-10"/>
<text text-anchor="start" x="333.6732" y="-15.4" font-family="sans-serif" font-size="14.00" fill="#000000"> &#160;Providers</text>
<polygon fill="#fb8072" stroke="transparent" points="406,-10 406,-30 426,-30 426,-10 406,-10"/>
<text text-anchor="start" x="429.7258" y="-15.4" font-family="sans-serif" font-size="14.00" fill="#000000"> &#160;Exports</text>
<g id="clust1" class="cluster">
<title>cluster_AlbumsModule</title>
<polygon fill="none" stroke="#000000" stroke-dasharray="1,5" points="92,-70 92,-268 404,-268 404,-70 92,-70"/>
</g>
<g id="clust2" class="cluster">
<title>cluster_AlbumsModule_declarations</title>
<polygon fill="none" stroke="#000000" points="100,-78 100,-130 396,-130 396,-78 100,-78"/>
</g>
<g id="clust6" class="cluster">
<title>cluster_AlbumsModule_exports</title>
<polygon fill="none" stroke="#000000" points="167,-208 167,-260 329,-260 329,-208 167,-208"/>
</g>
<!-- AlbumComponent -->
<g id="node1" class="node">
<title>AlbumComponent</title>
<polygon fill="#ffffb3" stroke="#000000" points="388.2204,-122 267.7796,-122 267.7796,-86 388.2204,-86 388.2204,-122"/>
<text text-anchor="middle" x="328" y="-99.8" font-family="Times,serif" font-size="14.00" fill="#000000">AlbumComponent</text>
</g>
<!-- AlbumsModule -->
<g id="node3" class="node">
<title>AlbumsModule</title>
<polygon fill="#8dd3c7" stroke="#000000" points="299.8823,-187 296.8823,-191 275.8823,-191 272.8823,-187 196.1177,-187 196.1177,-151 299.8823,-151 299.8823,-187"/>
<text text-anchor="middle" x="248" y="-164.8" font-family="Times,serif" font-size="14.00" fill="#000000">AlbumsModule</text>
</g>
<!-- AlbumComponent&#45;&gt;AlbumsModule -->
<g id="edge1" class="edge">
<title>AlbumComponent&#45;&gt;AlbumsModule</title>
<path fill="none" stroke="#000000" d="M283.9155,-122.1061C283.9155,-122.1061 283.9155,-140.991 283.9155,-140.991"/>
<polygon fill="#000000" stroke="#000000" points="280.4156,-140.9909 283.9155,-150.991 287.4156,-140.991 280.4156,-140.9909"/>
</g>
<!-- AlbumListComponent -->
<g id="node2" class="node">
<title>AlbumListComponent</title>
<polygon fill="#ffffb3" stroke="#000000" points="249.9986,-122 108.0014,-122 108.0014,-86 249.9986,-86 249.9986,-122"/>
<text text-anchor="middle" x="179" y="-99.8" font-family="Times,serif" font-size="14.00" fill="#000000">AlbumListComponent</text>
</g>
<!-- AlbumListComponent&#45;&gt;AlbumsModule -->
<g id="edge2" class="edge">
<title>AlbumListComponent&#45;&gt;AlbumsModule</title>
<path fill="none" stroke="#000000" d="M223.0291,-122.1061C223.0291,-122.1061 223.0291,-140.991 223.0291,-140.991"/>
<polygon fill="#000000" stroke="#000000" points="219.5292,-140.9909 223.0291,-150.991 226.5292,-140.991 219.5292,-140.9909"/>
</g>
<!-- AlbumListComponent  -->
<g id="node4" class="node">
<title>AlbumListComponent </title>
<polygon fill="#fb8072" stroke="#000000" points="320.9995,-252 175.0005,-252 175.0005,-216 320.9995,-216 320.9995,-252"/>
<text text-anchor="middle" x="248" y="-229.8" font-family="Times,serif" font-size="14.00" fill="#000000">AlbumListComponent </text>
</g>
<!-- AlbumsModule&#45;&gt;AlbumListComponent  -->
<g id="edge3" class="edge">
<title>AlbumsModule&#45;&gt;AlbumListComponent </title>
<path fill="none" stroke="#000000" stroke-dasharray="5,2" d="M248,-187.1061C248,-187.1061 248,-205.991 248,-205.991"/>
<polygon fill="#000000" stroke="#000000" points="244.5001,-205.9909 248,-215.991 251.5001,-205.991 244.5001,-205.9909"/>
</g>
</g>
</svg>
